<svg xmlns="http://www.w3.org/2000/svg" width="69" height="60" viewBox="0 0 69 60">
    <g fill="#000" fill-rule="nonzero" opacity=".1">
        <path d="M42.16 56.938a49.03 49.03 0 0 1-8.041.644 40.139 40.139 0 0 1-15.98-2.942l-.981 2.14a41.936 41.936 0 0 0 16.961 3.155c2.824.006 5.643-.22 8.43-.676l-.389-2.32zM13.86 51.63l-1.835 1.473c.75.9 1.635 1.678 2.626 2.305l1.294-1.968a8.948 8.948 0 0 1-2.085-1.81zM68.114 18.24a1.177 1.177 0 0 0-.528-.529v-.006L34.645 1.235a1.176 1.176 0 0 0-1.052 0L.653 17.705a1.177 1.177 0 0 0 0 2.106l12.29 6.145V44.64c0 5.937 9.302 10.588 21.176 10.588 11.874 0 21.177-4.65 21.177-10.588V25.956l5.882-2.941v15.96a3.514 3.514 0 0 0-1.322 5.802l-2.118 5.31a1.176 1.176 0 0 0 1.087 1.612h7.059a1.177 1.177 0 0 0 1.093-1.613l-2.118-5.31a3.514 3.514 0 0 0-1.328-5.801V21.838l4.055-2.021c.582-.29.818-.996.528-1.578zm-15.171 26.4c0 3.978-7.564 8.236-18.824 8.236-11.26 0-18.824-4.258-18.824-8.236v-.971c3.486 3.399 10.52 5.677 18.824 5.677 8.305 0 15.338-2.278 18.824-5.677v.971zm0-5.882c0 3.978-7.564 8.235-18.824 8.235-11.26 0-18.824-4.257-18.824-8.235V27.132l18.298 9.156c.331.165.72.165 1.052 0l18.298-9.156v11.626zm9.411 2.353a1.177 1.177 0 1 1 0 2.353 1.177 1.177 0 0 1 0-2.353zm1.792 8.235h-3.583l1.427-3.566c.117.012.235.037.364.037.13 0 .244-.025.365-.037l1.427 3.566zm-2.013-29.44l-22.428-2.242c-.737-1.439-2.88-2.435-5.586-2.435-3.354 0-5.882 1.517-5.882 3.53 0 2.01 2.528 3.529 5.882 3.529 2.601 0 4.69-.92 5.504-2.268l18.568 1.857-24.072 12.036-30.31-15.155 30.31-15.155 30.31 15.155-2.296 1.148zm-24.485-1.148c0 .293-1.251 1.177-3.529 1.177s-3.53-.884-3.53-1.177c0-.293 1.252-1.176 3.53-1.176 2.278 0 3.53.883 3.53 1.176zM60.65 12.158l1.053-2.104 2.353 1.176-1.053 2.105zM40.651 2.163L41.703.058 59.35 8.882l-1.052 2.104z"/>
    </g>
</svg>
