<svg xmlns="http://www.w3.org/2000/svg" width="57" height="58" viewBox="0 0 57 58">
    <g fill="#000" fill-rule="nonzero" opacity=".096">
        <path d="M10.733 10.763a.998.998 0 0 0 1.408-.119C18.985 2.556 30.533-.08 40.224 4.234a24.098 24.098 0 0 1 4.38 2.529c-.618 1.3-.452 2.454-.345 3.196.03.206.07.486.073.524-1.458 3.276-2.365 3.511-2.359 3.516-1.48-.66-4.5-.418-6.173.88-1.026.797-1.474 1.924-1.261 3.175.146.856.198 1.76.25 2.634.106 1.85.225 3.901 1.578 4.503.286.128.628.19 1.037.172 1.302-.058 2.74-1.233 4.13-2.368.612-.5 1.512-1.234 1.929-1.408.87.539.95 1.579.972 3.18.016 1.179.033 2.396.746 3.263 1.2 1.46 6.637 2.911 9.973 2.969a1 1 0 0 0 1.005-.846c1.239-7.942-1.344-16.158-6.91-21.976a1 1 0 1 0-1.446 1.381c4.93 5.155 7.326 12.346 6.502 19.398-3.29-.264-7.072-1.587-7.58-2.197-.266-.324-.28-1.225-.29-2.019-.023-1.663-.054-3.94-2.237-5.03-1.12-.583-2.359.453-3.93 1.736-.921.753-2.313 1.89-3.031 1.917-.304-.23-.397-1.834-.452-2.791-.051-.885-.11-1.889-.275-2.854-.09-.524.07-.913.517-1.26 1.149-.89 3.43-.945 4.133-.632 1.651.735 3.333-.788 5-4.53.236-.532.156-1.086.08-1.623-.115-.785-.232-1.598.487-2.576a1 1 0 0 0-.187-1.378 26.104 26.104 0 0 0-5.503-3.312C30.539-2.267 18.028.59 10.614 9.354a1 1 0 0 0 .119 1.409zM41.21 31.514c-.298-.043-.705-.1-.805-.135-1.262-.562-2.497.06-3.399.513-.344.173-.964.482-1.224.375a3.133 3.133 0 0 0-1.152-.885c-1.077-.48-2.295-.254-2.897.537-.424.556-.586 1.503.227 2.492 1.153 1.403 2.346 2.852 2.725 3.838.26.679.952 1.31 1.9 1.732 1.438.64 3.663.793 5.197-.886.605-.661 1.49-.979 2.346-1.285.993-.358 1.932-.694 2.343-1.594.244-.53.235-1.145-.027-1.828-.356-.927-1.085-1.642-2.169-2.125-1.04-.462-2.211-.628-3.066-.75zm3.445 3.864c-.123.161-.772.394-1.203.55-.983.352-2.207.791-3.146 1.818-1.053 1.151-2.607.541-2.908.407-.533-.237-.804-.526-.846-.62-.496-1.29-1.735-2.798-3.048-4.393l-.008-.009c.203.006.523.143.741.407.23.279.5.489.8.623 1.012.45 1.998-.045 2.867-.483.635-.318 1.292-.648 1.688-.472.324.144.75.205 1.337.288.779.11 1.749.247 2.533.596.59.263.954.595 1.115 1.015.07.184.073.27.078.273z"/>
        <path d="M55.45 33.347a1.004 1.004 0 0 0-.681-1.239 1 1 0 0 0-1.24.683 24.355 24.355 0 0 1-1.142 3.13C47.043 47.923 32.997 53.387 20.964 48.2c-2.325-3.521-4.238-7.418-1.473-9.979 4.967-4.6 3.644-7.728 3.079-9.065l-.105-.254c-.154-.4-.383-.726-.584-1.014-.49-.699-.622-.887.216-1.804.556-.61 1.02-.802 1.558-1.027 1.242-.517 2.284-1.118 3.434-3.702.67-1.503.44-3.042-.628-4.222-1.211-1.338-3.33-2-4.826-1.507-.934.308-1.525 1.032-1.617 1.983-.218 2.24-2.96 4.397-6.67 5.245-.982.224-1.089-.127-1.153-.336-.398-1.304.856-3.95 1.823-4.32.649-.249 1.037-.762 1.039-1.373.007-2.008-4.771-3.98-5.727-4.353a1.002 1.002 0 0 0-1.222.416 23.64 23.64 0 0 0-1.398 2.696 25.94 25.94 0 0 0 7.77 31.09 1 1 0 0 0 1.226-1.579 23.945 23.945 0 0 1-7.17-28.697c.283-.634.554-1.185.857-1.734 1.546.686 2.78 1.45 3.358 1.953-1.776 1.17-3.093 4.437-2.47 6.484.447 1.466 1.76 2.103 3.512 1.703 4.682-1.07 7.907-3.819 8.215-7 .01-.104.02-.202.255-.28.675-.222 1.98.138 2.715.95.544.6.636 1.277.284 2.068-.918 2.062-1.53 2.317-2.376 2.67-.628.262-1.41.587-2.265 1.523-1.92 2.101-.955 3.479-.378 4.302.15.212.29.413.355.582.037.096.081.201.13.316.47 1.108 1.341 3.173-2.595 6.818-4.463 4.133-.404 10.207 1.329 12.8.105.157.252.282.425.359 13.096 5.83 28.496-.08 34.327-13.177a26.32 26.32 0 0 0 1.237-3.388z"/>
        <path d="M36.59 53.483c-5.909 1.33-11.966.727-17.517-1.744C4.97 45.459-1.397 28.876 4.883 14.77a1 1 0 0 0-1.827-.814c-6.592 14.806-.173 32.154 14.3 39.18l-1.23 2.763a1 1 0 0 0 1.827.813l1.237-2.777c5.69 2.316 11.833 2.85 17.838 1.498a1 1 0 0 0-.439-1.951z"/>
        <path d="M25.256 39.732c-1.14-.507-3.061.21-4.074 1.17-.79.75-1.059 1.658-.737 2.495.302.788.972 1.462 1.838 1.848.866.385 1.815.432 2.604.13.877-.336 1.422-1.162 1.534-2.324a5.702 5.702 0 0 0-.344-2.47 1.538 1.538 0 0 0-.82-.849zm-1.085 3.775c-.586.225-1.636-.255-1.86-.815.006-.045.108-.273.528-.566.547-.379 1.155-.548 1.455-.571.122.423.175.909.137 1.302-.033.347-.136.604-.26.65z"/>
    </g>
</svg>
