<svg xmlns="http://www.w3.org/2000/svg" width="68" height="60" viewBox="0 0 68 60">
    <g fill="#000" fill-rule="nonzero" opacity=".1">
        <path d="M7.93 22.878l.011-.044a1.31 1.31 0 1 1 2.543.63l-.007.031a1.31 1.31 0 1 1-2.546-.617zM42.617 39.203c3.257-1.965 5.201-5.406 5.201-9.204 0-1.174-.188-2.328-.558-3.429a1.31 1.31 0 1 1 2.483-.835c.461 1.37.695 2.805.695 4.264 0 4.725-2.418 9.004-6.467 11.448a1.31 1.31 0 0 1-1.353-2.243zM27.92 20.27a13.31 13.31 0 0 1 9.157-3.632c1.6 0 3.167.28 4.655.834a1.31 1.31 0 0 1-.913 2.455 10.703 10.703 0 0 0-3.742-.67 10.699 10.699 0 0 0-7.362 2.92 1.306 1.306 0 0 1-1.852-.056 1.31 1.31 0 0 1 .056-1.851z"/>
        <path d="M1.31 30.394h9.855v-2.71a2.392 2.392 0 0 1 2.389-2.39h1.758a22.164 22.164 0 0 1 6.019-11.041A22.293 22.293 0 0 1 41.072 8.09a1.31 1.31 0 0 1-.468 2.578 19.671 19.671 0 0 0-17.42 5.438 19.555 19.555 0 0 0-5.185 9.189h7.15a2.392 2.392 0 0 1 2.39 2.389v2.71h9.855c.723 0 1.31.587 1.31 1.31v8.036c0 1.23-.48 2.348-1.259 3.183v6.722c5.11-.087 9.883-2.109 13.526-5.752a19.62 19.62 0 0 0 5.359-17.831 1.31 1.31 0 0 1 2.567-.523 22.234 22.234 0 0 1-6.074 20.207 22.36 22.36 0 0 1-15.378 6.517v4.747c0 .122-.008.243-.023.362C52.36 57.186 64.455 44.98 64.455 30c0-4.684-1.192-9.263-3.455-13.32l-4.42 4.44a1.31 1.31 0 0 1-.928.386h-8.239l-8.077 8.077a1.306 1.306 0 0 1-1.852 0 1.31 1.31 0 0 1 0-1.853l8.077-8.077v-8.239c0-.347.138-.681.385-.927l4.432-4.421a27.327 27.327 0 0 0-13.3-3.443c-10.627 0-20.382 6.232-24.853 15.878a1.31 1.31 0 1 1-2.377-1.102A30.047 30.047 0 0 1 20.722 4.849 29.882 29.882 0 0 1 37.077.002 29.934 29.934 0 0 1 52.3 4.147l3.77-3.76a1.31 1.31 0 0 1 2.235.927v7.423h7.446a1.31 1.31 0 0 1 .929 2.234l-3.764 3.782A29.937 29.937 0 0 1 67.074 30c0 8.013-3.12 15.546-8.786 21.211-5.665 5.666-13.198 8.786-21.21 8.786l-32.831.002a2.992 2.992 0 0 1-2.988-2.989V42.923A4.633 4.633 0 0 1 0 39.737v-8.033c0-.724.587-1.31 1.31-1.31zM55.685 4.47l-7.505 7.486v5.07l7.505-7.521V4.47zm1.853 6.886l-7.505 7.528h5.074l7.492-7.528h-5.06zM24.92 27.915H13.785v2.479h11.134v-2.48zM3.88 51.089h8.596a1.31 1.31 0 0 1 0 2.62H3.879v3.3c0 .204.165.369.368.369h28.604l.028-.001h1.592a.368.368 0 0 0 .354-.368V44.338a4.68 4.68 0 0 1-.788.068H23.234a3.916 3.916 0 0 1-3.882 3.443 3.916 3.916 0 0 1-3.883-3.452l-10.8.007h-.002c-.267 0-.53-.024-.788-.068v6.753zm16.764-7.152v-2.302H18.06v2.302a1.293 1.293 0 0 0 2.583 0zm-18.023-4.2c0 .547.213 1.061.6 1.448.386.386.9.599 1.447.599l10.774-.007v-1.2c0-.862.7-1.562 1.561-1.562h4.7c.86 0 1.561.7 1.561 1.562v1.209h10.774a2.049 2.049 0 0 0 2.047-2.047v-6.725H2.62v6.723z"/>
        <path d="M17.967 51.473a1.32 1.32 0 0 1 .926-.384c.346 0 .682.14.927.384.244.244.383.582.383.926 0 .345-.14.683-.383.926a1.323 1.323 0 0 1-.927.384c-.345 0-.681-.14-.926-.384a1.32 1.32 0 0 1-.384-.926c0-.344.14-.682.384-.926z"/>
    </g>
</svg>
