<svg xmlns="http://www.w3.org/2000/svg" width="8" height="14" viewBox="0 0 8 14">
    <path fill="#191919" fill-rule="nonzero"
          d="M7.712 7.693l-6.034 6.02a.984.984 0 0 1-1.39 0 .979.979 0 0 1 0-1.387L5.628 7 .287 1.674a.979.979 0 0 1 0-1.387.984.984 0 0 1 1.39 0l6.034 6.02a.976.976 0 0 1 0 1.386z"
          opacity=".2"/>
</svg>
