<svg xmlns="http://www.w3.org/2000/svg" width="20" height="20" viewBox="0 0 14 14">
    <path fill="#939393" fill-rule="nonzero" d="M11.95 2.05A6.954 6.954 0 0 0 7 0C5.13 0 3.372.728 2.05 2.05A6.954 6.954 0 0 0 0 7c0 1.87.728 3.628 2.05 4.95A6.954 6.954 0 0 0 7 14c1.87 0 3.628-.728 4.95-2.05A6.954 6.954 0 0 0 14 7c0-1.87-.728-3.628-2.05-4.95zM7 12.87A5.876 5.876 0 0 1 1.131 7 5.876 5.876 0 0 1 7 1.131 5.876 5.876 0 0 1 12.869 7 5.876 5.876 0 0 1 7 12.869zM9.33 8.53L7.566 6.766V3.139a.566.566 0 1 0-1.131 0V7c0 .15.06.294.165.4l1.93 1.93a.564.564 0 0 0 .8 0 .566.566 0 0 0 0-.8z"/>
</svg>
