<svg xmlns="http://www.w3.org/2000/svg" width="23" height="30" viewBox="0 0 23 30">
    <g fill="#191919" fill-rule="nonzero">
        <path d="M22.36 5.985l-.03-.03v-.03L16.62.151l-.03-.03s-.03 0-.03-.03c0 0-.03 0-.03-.031C16.438 0 16.348 0 16.228 0H2.074C1.533 0 1.022.213.66.577l-.03.03c-.36.365-.6.912-.6 1.459v25.853c0 .577.24 1.094.6 1.458.36.365.902.608 1.443.608h18.302c.571 0 1.082-.243 1.443-.608.36-.364.6-.911.6-1.458V6.289a.907.907 0 0 0-.06-.304zM16.8 2.187l3.396 3.433H17.7a.814.814 0 0 1-.63-.273.952.952 0 0 1-.271-.638V2.187zm4.327 25.732c0 .213-.09.395-.24.547a.749.749 0 0 1-.541.243H2.074a.859.859 0 0 1-.541-.213.736.736 0 0 1-.21-.547V2.035c0-.212.09-.394.24-.546l.03-.03c.15-.122.33-.213.51-.213h13.464v3.432a2.218 2.218 0 0 0 2.224 2.218h3.336V27.92z"/>
        <path d="M6.728 18v-2.176c0-.368-.035-.63-.104-.784-.07-.155-.213-.232-.432-.232a.641.641 0 0 0-.44.148.94.94 0 0 0-.256.38V18h-1.04v-4h.808l.12.528h.032c.123-.17.279-.32.468-.448.19-.128.433-.192.732-.192.256 0 .465.052.628.156.163.104.29.279.38.524.123-.208.28-.373.472-.496.192-.123.424-.184.696-.184.224 0 .415.027.572.08a.786.786 0 0 1 .384.276c.099.13.172.305.22.524.048.219.072.496.072.832V18H9v-2.248c0-.315-.033-.55-.1-.708-.067-.157-.215-.236-.444-.236a.627.627 0 0 0-.444.152.914.914 0 0 0-.244.416V18h-1.04zm4.168-4h.76l.12.48h.032c.139-.203.303-.352.492-.448.19-.096.42-.144.692-.144.501 0 .877.159 1.128.476.25.317.376.828.376 1.532 0 .341-.04.65-.12.924a1.95 1.95 0 0 1-.356.7c-.157.192-.35.339-.576.44a1.893 1.893 0 0 1-.78.152 1.91 1.91 0 0 1-.408-.036 1.405 1.405 0 0 1-.32-.116v1.64h-1.04V14zm1.784.768c-.203 0-.361.05-.476.152a.992.992 0 0 0-.268.456v1.664a.966.966 0 0 0 .244.14.967.967 0 0 0 .348.052c.299 0 .523-.105.672-.316.15-.21.224-.559.224-1.044 0-.352-.059-.624-.176-.816-.117-.192-.307-.288-.568-.288zm4.008 2.464c.33 0 .583-.088.756-.264a.878.878 0 0 0 .26-.64c0-.304-.09-.528-.272-.672-.181-.144-.467-.216-.856-.216H16v-.552l.968-1.32.456-.36-.632.072h-1.344v-.88h3.056v.568l-1.128 1.512-.352.216v.04l.336-.048c.187.016.364.059.532.128.168.07.315.17.44.3.125.13.225.292.3.484.075.192.112.413.112.664 0 .315-.052.587-.156.816-.104.23-.248.421-.432.576-.184.155-.399.27-.644.344-.245.075-.51.112-.792.112-.235 0-.477-.021-.728-.064a2.11 2.11 0 0 1-.608-.184l.28-.864c.139.07.292.125.46.168.168.043.356.064.564.064z"/>
    </g>
</svg>
