<svg xmlns="http://www.w3.org/2000/svg" width="50" height="50" viewBox="0 0 50 50">
    <g fill="#FFF" fill-rule="nonzero">
        <path d="M25 2.5c12.407 0 22.5 10.093 22.5 22.5S37.407 47.5 25 47.5 2.5 37.407 2.5 25 12.593 2.5 25 2.5zM25 0C11.194 0 0 11.193 0 25s11.194 25 25 25 25-11.193 25-25S38.806 0 25 0z"/>
        <path d="M35.49 22.462l-13.313-8.76C19.88 12.19 18 13.203 18 15.953V34.39c0 2.75 1.883 3.768 4.184 2.262l13.3-8.703c2.3-1.508 2.303-3.976.005-5.488zm-1.775 3.65l-11.82 7.735c-.767.503-1.395.164-1.395-.753V17.25c0-.917.627-1.255 1.392-.75l11.826 7.781c.765.504.764 1.327-.003 1.83z"/>
    </g>
</svg>
