<svg xmlns="http://www.w3.org/2000/svg" width="13" height="20" viewBox="0 0 13 20">
    <path fill="#812023" fill-rule="nonzero" d="M9.042 3.036H7.177V1.3h4.12c.217 0 .434.217.434.434 0 .347.303.65.65.65.347 0 .65-.303.65-.65A1.74 1.74 0 0 0 11.298 0h-9.54A1.74 1.74 0 0 0 .021 1.735c0 .347.303.65.65.65.347 0 .65-.303.65-.65 0-.26.174-.434.434-.434h4.12v1.691H4.011A3.822 3.822 0 0 0 .195 6.81v7.806c0 .867.607 1.604 1.475 1.735L.412 18.735a.893.893 0 0 0 .347 1.17c.13.087.26.087.39.087a.914.914 0 0 0 .78-.477l.261-.52h8.587l.26.52a.914.914 0 0 0 .78.477c.13 0 .26-.043.39-.086a.82.82 0 0 0 .348-1.171l-1.258-2.385a1.77 1.77 0 0 0 1.475-1.735V6.852c.086-2.125-1.648-3.816-3.73-3.816zm1.04 11.796a1.259 1.259 0 0 1 0-2.516 1.259 1.259 0 0 1 0 2.516zM1.757 7.329c0-1.344 1.085-2.385 2.429-2.385h4.77c1.345 0 2.429 1.084 2.429 2.385v2.125c0 .477-.39.824-.867.824H2.58c-.477 0-.867-.347-.867-.824.043 0 .043-2.125.043-2.125zm1.215 4.944a1.259 1.259 0 0 1 0 2.515 1.259 1.259 0 0 1 0-2.515zm-.087 5.508l.694-1.345h5.854l.694 1.345H2.884z"/>
</svg>
