<svg xmlns="http://www.w3.org/2000/svg" width="26" height="16" viewBox="0 0 26 16">
    <g fill="#671517" fill-rule="nonzero">
        <path d="M25.03 7.514C24.807 7.21 19.445.041 12.596.041 5.747.04.385 7.209.16 7.514a.818.818 0 0 0 0 .972c.225.305 5.587 7.473 12.435 7.473 6.849 0 12.21-7.168 12.436-7.473a.818.818 0 0 0 0-.972zm-12.435 6.798C7.551 14.312 3.182 9.555 1.888 8 3.18 6.443 7.54 1.687 12.595 1.687c5.045 0 9.413 4.757 10.707 6.314-1.291 1.556-5.651 6.311-10.707 6.311z"/>
        <path d="M12.595 3.06C9.848 3.06 7.612 5.276 7.612 8s2.236 4.94 4.983 4.94c2.748 0 4.983-2.216 4.983-4.94s-2.235-4.94-4.983-4.94zm0 8.233c-1.831 0-3.322-1.477-3.322-3.293s1.49-3.293 3.322-3.293S15.917 6.184 15.917 8s-1.49 3.293-3.322 3.293z"/>
    </g>
</svg>
