<svg xmlns="http://www.w3.org/2000/svg" width="20" height="18" viewBox="0 0 20 18">
    <path fill="#FFF" fill-rule="evenodd" d="M16 2h2a2 2 0 0 1 2 2v12a2 2 0 0 1-2 2H2a2 2 0 0 1-2-2V4a2 2 0 0 1 2-2h2V1a1 1 0 1 1 2 0v1h8V1a1 1 0 1 1 2 0v1zm0 2H3a1 1 0 0 0-1 1v10a1 1 0 0 0 1 1h14a1 1 0 0 0 1-1V5a1 1 0 0 0-1-1h-1zm-2 3h2v2h-2V7zm0 4h2v2h-2v-2zM4 11h2v2H4v-2zm0-4h2v2H4V7zm5 4h2v2H9v-2zm0-4h2v2H9V7z"/>
</svg>
